simulation/qsim/TemperatureControl.msim.vcd
$comment
	File created using the following command:
		vcd file TemperatureControl.msim.vcd -direction
$end
$date
	Sun May 15 16:59:14 2016
$end
$version
	ModelSim Version 10.4b
$end
$timescale
	1ps
$end

$scope module DA_vlg_vec_tst $end
$var reg 1 ! clock $end
$var reg 8 " level [7:0] $end
$var wire 1 # DIN $end
$var wire 1 $ nSYNC $end

$scope module i1 $end
$var wire 1 % gnd $end
$var wire 1 & vcc $end
$var wire 1 ' unknown $end
$var tri1 1 ( devclrn $end
$var tri1 1 ) devpor $end
$var tri1 1 * devoe $end
$var wire 1 + nSYNC~output_o $end
$var wire 1 , DIN~output_o $end
$var wire 1 - clock~input_o $end
$var wire 1 . state[0]~6_combout $end
$var wire 1 / state[4]~15 $end
$var wire 1 0 state[5]~16_combout $end
$var wire 1 1 DIN~0_combout $end
$var wire 1 2 state[0]~7 $end
$var wire 1 3 state[1]~8_combout $end
$var wire 1 4 state[1]~9 $end
$var wire 1 5 state[2]~10_combout $end
$var wire 1 6 state[2]~11 $end
$var wire 1 7 state[3]~12_combout $end
$var wire 1 8 state[3]~13 $end
$var wire 1 9 state[4]~14_combout $end
$var wire 1 : Equal0~0_combout $end
$var wire 1 ; Equal0~1_combout $end
$var wire 1 < nSYNC~2_combout $end
$var wire 1 = nSYNC~reg0_q $end
$var wire 1 > Equal0~2_combout $end
$var wire 1 ? Equal1~0_combout $end
$var wire 1 @ DIN~1_combout $end
$var wire 1 A level[7]~input_o $end
$var wire 1 B level[6]~input_o $end
$var wire 1 C level[5]~input_o $end
$var wire 1 D level[4]~input_o $end
$var wire 1 E level[3]~input_o $end
$var wire 1 F level[2]~input_o $end
$var wire 1 G level[1]~input_o $end
$var wire 1 H tempLevel[0]~1_combout $end
$var wire 1 I tempLevel[0]~9_combout $end
$var wire 1 J level[0]~input_o $end
$var wire 1 K tempLevel[0]~10_combout $end
$var wire 1 L tempLevel~8_combout $end
$var wire 1 M tempLevel[7]~2_combout $end
$var wire 1 N tempLevel~7_combout $end
$var wire 1 O tempLevel~6_combout $end
$var wire 1 P tempLevel~5_combout $end
$var wire 1 Q tempLevel~4_combout $end
$var wire 1 R tempLevel~3_combout $end
$var wire 1 S tempLevel~0_combout $end
$var wire 1 T DIN~2_combout $end
$var wire 1 U DIN~3_combout $end
$var wire 1 V DIN~reg0_q $end
$var wire 1 W state [5] $end
$var wire 1 X state [4] $end
$var wire 1 Y state [3] $end
$var wire 1 Z state [2] $end
$var wire 1 [ state [1] $end
$var wire 1 \ state [0] $end
$var wire 1 ] tempLevel [7] $end
$var wire 1 ^ tempLevel [6] $end
$var wire 1 _ tempLevel [5] $end
$var wire 1 ` tempLevel [4] $end
$var wire 1 a tempLevel [3] $end
$var wire 1 b tempLevel [2] $end
$var wire 1 c tempLevel [1] $end
$var wire 1 d tempLevel [0] $end
$upscope $end
$upscope $end
$enddefinitions $end
#0
$dumpvars
0!
b0 "
0#
1$
0%
1&
x'
1(
1)
1*
1+
0,
0-
1.
0/
00
01
02
03
14
05
06
07
18
09
1:
1;
1<
0=
1>
0?
0@
0A
0B
0C
0D
0E
0F
0G
0H
0I
0J
0K
0L
0M
0N
0O
0P
0Q
0R
0S
0T
0U
0V
0\
0[
0Z
0Y
0X
0W
0d
0c
0b
0a
0`
0_
0^
0]
$end
#5000
1!
1-
1=
1\
0+
0:
12
0$
0.
1H
0;
13
#10000
b1 "
0!
1J
0-
#15000
1!
1-
1[
0\
04
1:
02
03
1.
14
15
13
05
#20000
b11 "
b10 "
0!
0J
1G
0-
#25000
1!
1-
1\
0:
12
0.
04
03
15
#30000
b11 "
0!
1J
0-
#35000
1!
1-
1Z
0[
0\
16
14
1:
02
05
13
1.
06
17
15
03
07
#40000
b111 "
b101 "
b100 "
0!
0J
0G
1F
0-
#45000
1!
1-
1\
0:
12
0.
13
#50000
b101 "
0!
1J
0-
#55000
1!
1-
1[
0\
04
1:
02
03
1.
16
14
05
13
06
17
15
07
#60000
b111 "
b110 "
0!
0J
1G
0-
#65000
1!
1-
1\
1?
0:
12
0.
1M
04
1N
1L
03
16
05
17
#70000
b111 "
0!
1J
0-
1K
#75000
1!
1-
1b
1c
1d
1Y
0Z
0[
0\
0>
08
0?
06
14
02
07
15
13
1.
18
19
1O
0K
17
05
03
09
#80000
b1111 "
b1011 "
b1001 "
b1000 "
0!
0J
0G
0F
1E
0-
#85000
1!
1-
1a
0d
1\
12
1P
0L
0.
13
#90000
b1001 "
0!
1J
0-
#95000
1!
1-
1`
0c
1[
0\
04
02
1Q
0N
03
1.
14
15
13
05
#100000
b1011 "
b1010 "
0!
0J
1G
0-
#105000
1!
1-
1_
0b
1\
12
1R
0O
0.
04
03
15
#110000
b1011 "
0!
1J
0-
#115000
1!
1-
1^
0a
1Z
0[
0\
16
14
02
1S
0P
05
13
1.
08
06
07
15
03
18
19
17
09
#120000
b1111 "
b1101 "
b1100 "
0!
0J
0G
1F
0-
#125000
1!
1-
1]
0`
1\
1T
12
0Q
0.
1U
13
#130000
b1101 "
0!
1J
0-
#135000
1!
1-
0_
1[
0\
1V
1,
04
02
1#
0R
03
1.
16
14
05
13
08
06
07
15
18
19
17
09
#140000
b1111 "
b1110 "
0!
0J
1G
0-
#145000
1!
1-
0^
1\
12
0S
0.
04
03
16
05
08
07
19
#150000
b1111 "
0!
1J
0-
#155000
1!
1-
0]
1X
0Y
0Z
0[
0\
0T
11
1/
18
06
14
02
0<
09
17
15
13
1.
0H
0/
10
19
07
05
03
0M
00
#160000
b11111 "
b10111 "
b10011 "
b10001 "
b10000 "
0!
0J
0G
0F
0E
1D
0-
#165000
1!
1-
0=
0X
1+
1>
1:
01
1$
09
1@
1;
0U
0@
1U
1<
0U
#170000
b10001 "
0!
1J
0-
#175000
1!
1-
1=
1\
0V
0,
0+
0:
12
0$
0#
0.
1H
0;
13
#180000
b10011 "
b10010 "
0!
0J
1G
0-
#185000
1!
1-
1[
0\
04
1:
02
03
1.
14
15
13
05
#190000
b10011 "
0!
1J
0-
#195000
1!
1-
1\
0:
12
0.
04
03
15
#200000
b10111 "
b10101 "
b10100 "
0!
0J
0G
1F
0-
#205000
1!
1-
1Z
0[
0\
16
14
1:
02
05
13
1.
06
17
15
03
07
#210000
b10101 "
0!
1J
0-
#215000
1!
1-
1\
0:
12
0.
13
#220000
b10111 "
b10110 "
0!
0J
1G
0-
#225000
1!
1-
1[
0\
04
1:
02
03
1.
16
14
05
13
06
17
15
07
#230000
b10111 "
0!
1J
0-
#235000
1!
1-
1\
1?
0:
12
0.
1M
04
1P
1N
1L
1K
03
16
05
17
#240000
b11111 "
b11011 "
b11001 "
b11000 "
0!
0J
0G
0F
1E
0-
0K
0L
0N
1O
#245000
1!
1-
1`
1a
1Y
0Z
0[
0\
0>
08
0?
06
14
02
07
15
13
1.
18
19
1Q
0O
17
05
03
09
#250000
b11001 "
0!
1J
0-
#255000
1!
1-
1_
0a
1\
12
1R
0P
0.
13
#260000
b11011 "
b11010 "
0!
0J
1G
0-
#265000
1!
1-
1^
0`
1[
0\
04
02
1S
0Q
03
1.
14
15
13
05
#270000
b11011 "
0!
1J
0-
#275000
1!
1-
1]
0_
1\
1T
12
0R
0.
04
1U
03
15
#280000
b11111 "
b11101 "
b11100 "
0!
0J
0G
1F
0-
#285000
1!
1-
0^
1Z
0[
0\
1V
1,
16
14
02
1#
0S
05
13
1.
08
06
07
15
03
18
19
17
09
#290000
b11101 "
0!
1J
0-
#295000
1!
1-
0]
1\
0T
12
0.
0U
13
#300000
b11111 "
b11110 "
0!
0J
1G
0-
#305000
1!
1-
1[
0\
0V
0,
04
02
0#
03
1.
16
14
05
13
08
06
07
15
18
19
17
09
#310000
b11111 "
0!
1J
0-
#315000
1!
1-
1\
12
0.
04
03
16
05
08
07
19
#320000
b111111 "
b101111 "
b100111 "
b100011 "
b100001 "
b100000 "
0!
0J
0G
0F
0E
0D
1C
0-
#325000
1!
1-
1X
0Y
0Z
0[
0\
11
1/
18
06
14
02
0<
09
17
15
13
1.
0H
0/
10
19
07
05
03
0M
00
#330000
b100001 "
0!
1J
0-
#335000
1!
1-
0=
0X
1+
1>
1:
01
1$
09
1;
1<
#340000
b100011 "
b100010 "
0!
0J
1G
0-
#345000
1!
1-
1=
1\
0+
0:
12
0$
0.
1H
0;
13
#350000
b100011 "
0!
1J
0-
#355000
1!
1-
1[
0\
04
1:
02
03
1.
14
15
13
05
#360000
b100111 "
b100101 "
b100100 "
0!
0J
0G
1F
0-
#365000
1!
1-
1\
0:
12
0.
04
03
15
#370000
b100101 "
0!
1J
0-
#375000
1!
1-
1Z
0[
0\
16
14
1:
02
05
13
1.
06
17
15
03
07
#380000
b100111 "
b100110 "
0!
0J
1G
0-
#385000
1!
1-
1\
0:
12
0.
13
#390000
b100111 "
0!
1J
0-
#395000
1!
1-
1[
0\
04
1:
02
03
1.
16
14
05
13
06
17
15
07
#400000
b101111 "
b101011 "
b101001 "
b101000 "
0!
0J
0G
0F
1E
0-
#405000
1!
1-
1\
1?
0:
12
0.
1M
04
1Q
1O
03
16
05
17
#410000
b101001 "
0!
1J
0-
1K
#415000
1!
1-
1_
1a
1d
1Y
0Z
0[
0\
0>
08
0?
06
14
02
07
15
13
1.
18
19
1R
0Q
1P
0O
1L
0K
17
05
03
09
#420000
b101011 "
b101010 "
0!
0J
1G
0-
#425000
1!
1-
1^
0_
1`
0a
1c
0d
1\
12
1S
0R
1Q
0P
1N
0L
0.
13
#430000
b101011 "
0!
1J
0-
#435000
1!
1-
1]
0^
1_
0`
1b
0c
1[
0\
1T
04
02
0S
1R
0Q
1O
0N
03
1.
14
1U
15
13
05
#440000
b101111 "
b101101 "
b101100 "
0!
0J
0G
1F
0-
#445000
1!
1-
0]
1^
0_
1a
0b
1\
1V
1,
0T
12
1#
1S
0R
1P
0O
0.
04
0U
03
15
#450000
b101101 "
0!
1J
0-
#455000
1!
1-
1]
0^
1`
0a
1Z
0[
0\
0V
0,
1T
16
14
02
0#
0S
1Q
0P
05
13
1.
08
06
1U
07
15
03
18
19
17
09
#460000
b101111 "
b101110 "
0!
0J
1G
0-
#465000
1!
1-
0]
1_
0`
1\
1V
1,
0T
12
1#
1R
0Q
0.
0U
13
#470000
b101111 "
0!
1J
0-
#475000
1!
1-
1^
0_
1[
0\
0V
0,
04
02
0#
1S
0R
03
1.
16
14
05
13
08
06
07
15
18
19
17
09
#480000
b111111 "
b110111 "
b110011 "
b110001 "
b110000 "
0!
0J
0G
0F
0E
1D
0-
#485000
1!
1-
1]
0^
1\
1T
12
0S
0.
04
1U
03
16
05
08
07
19
#490000
b110001 "
0!
1J
0-
#495000
1!
1-
0]
1X
0Y
0Z
0[
0\
1V
1,
0T
11
1/
18
06
14
02
1#
0<
09
17
15
13
1.
0H
0/
10
19
07
05
03
0M
00
#500000
b110011 "
b110010 "
0!
0J
1G
0-
#505000
1!
1-
0=
0X
1+
1>
1:
01
1$
09
1@
1;
0U
0@
1U
1<
0U
#510000
b110011 "
0!
1J
0-
#515000
1!
1-
1=
1\
0V
0,
0+
0:
12
0$
0#
0.
1H
0;
13
#520000
b110111 "
b110101 "
b110100 "
0!
0J
0G
1F
0-
#525000
1!
1-
1[
0\
04
1:
02
03
1.
14
15
13
05
#530000
b110101 "
0!
1J
0-
#535000
1!
1-
1\
0:
12
0.
04
03
15
#540000
b110111 "
b110110 "
0!
0J
1G
0-
#545000
1!
1-
1Z
0[
0\
16
14
1:
02
05
13
1.
06
17
15
03
07
#550000
b110111 "
0!
1J
0-
#555000
1!
1-
1\
0:
12
0.
13
#560000
b111111 "
b111011 "
b111001 "
b111000 "
0!
0J
0G
0F
1E
0-
#565000
1!
1-
1[
0\
04
1:
02
03
1.
16
14
05
13
06
17
15
07
#570000
b111001 "
0!
1J
0-
#575000
1!
1-
1\
1?
0:
12
0.
1M
04
1Q
1P
1O
1K
03
16
05
17
#580000
b111011 "
b111010 "
0!
0J
1G
0-
0K
1L
#585000
1!
1-
1_
1`
1a
1c
1Y
0Z
0[
0\
0>
08
0?
06
14
02
07
15
13
1.
18
19
1R
0O
1N
0L
17
05
03
09
#590000
b111011 "
0!
1J
0-
#595000
1!
1-
1^
0a
1b
0c
1\
12
1S
0P
1O
0N
0.
13
#600000
b111111 "
b111101 "
b111100 "
0!
0J
0G
1F
0-
#605000
1!
1-
1]
0`
1a
0b
1[
0\
1T
04
02
0Q
1P
0O
03
1.
14
1U
15
13
05
#610000
b111101 "
0!
1J
0-
#615000
1!
1-
0_
1`
0a
1\
1V
1,
12
1#
0R
1Q
0P
0.
04
03
15
#620000
b111111 "
b111110 "
0!
0J
1G
0-
#625000
1!
1-
0^
1_
0`
1Z
0[
0\
16
14
02
0S
1R
0Q
05
13
1.
08
06
07
15
03
18
19
17
09
#630000
b111111 "
0!
1J
0-
#635000
1!
1-
0]
1^
0_
1\
0T
12
1S
0R
0.
0U
13
#640000
b1111111 "
b1011111 "
b1001111 "
b1000111 "
b1000011 "
b1000001 "
b1000000 "
0!
0J
0G
0F
0E
0D
0C
1B
0-
#645000
1!
1-
1]
0^
1[
0\
0V
0,
1T
04
02
0#
0S
03
1.
16
14
1U
05
13
08
06
07
15
18
19
17
09
#650000
b1000001 "
0!
1J
0-
#655000
1!
1-
0]
1\
1V
1,
0T
12
1#
0.
04
0U
03
16
05
08
07
19
#660000
b1000011 "
b1000010 "
0!
0J
1G
0-
#665000
1!
1-
1X
0Y
0Z
0[
0\
0V
0,
11
1/
18
06
14
02
0#
0<
09
17
15
13
1.
0H
0/
10
19
07
05
03
0M
00
#670000
b1000011 "
0!
1J
0-
#675000
1!
1-
0=
0X
1+
1>
1:
01
1$
09
1;
1<
#680000
b1000111 "
b1000101 "
b1000100 "
0!
0J
0G
1F
0-
#685000
1!
1-
1=
1\
0+
0:
12
0$
0.
1H
0;
13
#690000
b1000101 "
0!
1J
0-
#695000
1!
1-
1[
0\
04
1:
02
03
1.
14
15
13
05
#700000
b1000111 "
b1000110 "
0!
0J
1G
0-
#705000
1!
1-
1\
0:
12
0.
04
03
15
#710000
b1000111 "
0!
1J
0-
#715000
1!
1-
1Z
0[
0\
16
14
1:
02
05
13
1.
06
17
15
03
07
#720000
b1001111 "
b1001011 "
b1001001 "
b1001000 "
0!
0J
0G
0F
1E
0-
#725000
1!
1-
1\
0:
12
0.
13
#730000
b1001001 "
0!
1J
0-
#735000
1!
1-
1[
0\
04
1:
02
03
1.
16
14
05
13
06
17
15
07
#740000
b1001011 "
b1001010 "
0!
0J
1G
0-
#745000
1!
1-
1\
1?
0:
12
0.
1M
04
1R
1O
1L
03
16
05
17
#750000
b1001011 "
0!
1J
0-
1K
#755000
1!
1-
1^
1a
1c
1d
1Y
0Z
0[
0\
0>
08
0?
06
14
02
07
15
13
1.
18
19
1S
0R
1P
0O
1N
0K
17
05
03
09
#760000
b1001111 "
b1001101 "
b1001100 "
0!
0J
0G
1F
0-
#765000
1!
1-
1]
0^
1`
0a
1b
0d
1\
1T
12
0S
1Q
0P
1O
0L
0.
1U
13
#770000
b1001101 "
0!
1J
0-
#775000
1!
1-
0]
1_
0`
1a
0c
1[
0\
1V
1,
0T
04
02
1#
1R
0Q
1P
0N
03
1.
14
0U
15
13
05
#780000
b1001111 "
b1001110 "
0!
0J
1G
0-
#785000
1!
1-
1^
0_
1`
0b
1\
0V
0,
12
0#
1S
0R
1Q
0O
0.
04
03
15
#790000
b1001111 "
0!
1J
0-
#795000
1!
1-
1]
0^
1_
0a
1Z
0[
0\
1T
16
14
02
0S
1R
0P
05
13
1.
08
06
1U
07
15
03
18
19
17
09
#800000
b1011111 "
b1010111 "
b1010011 "
b1010001 "
b1010000 "
0!
0J
0G
0F
0E
1D
0-
#805000
1!
1-
0]
1^
0`
1\
1V
1,
0T
12
1#
1S
0Q
0.
0U
13
#810000
b1010001 "
0!
1J
0-
#815000
1!
1-
1]
0_
1[
0\
0V
0,
1T
04
02
0#
0R
03
1.
16
14
1U
05
13
08
06
07
15
18
19
17
09
#820000
b1010011 "
b1010010 "
0!
0J
1G
0-
#825000
1!
1-
0^
1\
1V
1,
12
1#
0S
0.
04
03
16
05
08
07
19
#830000
b1010011 "
0!
1J
0-
#835000
1!
1-
0]
1X
0Y
0Z
0[
0\
0T
11
1/
18
06
14
02
0<
09
17
15
13
1.
0H
0/
10
19
07
05
03
0M
00
#840000
b1010111 "
b1010101 "
b1010100 "
0!
0J
0G
1F
0-
#845000
1!
1-
0=
0X
1+
1>
1:
01
1$
09
1@
1;
0U
0@
1U
1<
0U
#850000
b1010101 "
0!
1J
0-
#855000
1!
1-
1=
1\
0V
0,
0+
0:
12
0$
0#
0.
1H
0;
13
#860000
b1010111 "
b1010110 "
0!
0J
1G
0-
#865000
1!
1-
1[
0\
04
1:
02
03
1.
14
15
13
05
#870000
b1010111 "
0!
1J
0-
#875000
1!
1-
1\
0:
12
0.
04
03
15
#880000
b1011111 "
b1011011 "
b1011001 "
b1011000 "
0!
0J
0G
0F
1E
0-
#885000
1!
1-
1Z
0[
0\
16
14
1:
02
05
13
1.
06
17
15
03
07
#890000
b1011001 "
0!
1J
0-
#895000
1!
1-
1\
0:
12
0.
13
#900000
b1011011 "
b1011010 "
0!
0J
1G
0-
#905000
1!
1-
1[
0\
04
1:
02
03
1.
16
14
05
13
06
17
15
07
#910000
b1011011 "
0!
1J
0-
#915000
1!
1-
1\
1?
0:
12
0.
1M
04
1R
1P
1O
1L
1K
03
16
05
17
#920000
b1011111 "
b1011101 "
b1011100 "
0!
0J
0G
1F
0-
0K
0L
1N
#925000
1!
1-
1^
1`
1a
1b
1Y
0Z
0[
0\
0>
08
0?
06
14
02
07
15
13
1.
18
19
1S
0R
1Q
0N
17
05
03
09
#930000
b1011101 "
0!
1J
0-
#935000
1!
1-
1]
0^
1_
0b
1\
1T
12
0S
1R
0O
0.
1U
13
#940000
b1011111 "
b1011110 "
0!
0J
1G
0-
#945000
1!
1-
0]
1^
0a
1[
0\
1V
1,
0T
04
02
1#
1S
0P
03
1.
14
0U
15
13
05
#950000
b1011111 "
0!
1J
0-
#955000
1!
1-
1]
0`
1\
0V
0,
1T
12
0#
0Q
0.
04
1U
03
15
#960000
b1111111 "
b1101111 "
b1100111 "
b1100011 "
b1100001 "
b1100000 "
0!
0J
0G
0F
0E
0D
1C
0-
#965000
1!
1-
0_
1Z
0[
0\
1V
1,
16
14
02
1#
0R
05
13
1.
08
06
07
15
03
18
19
17
09
#970000
b1100001 "
0!
1J
0-
#975000
1!
1-
0^
1\
12
0S
0.
13
#980000
b1100011 "
b1100010 "
0!
0J
1G
0-
#985000
1!
1-
0]
1[
0\
0T
04
02
03
1.
16
14
0U
05
13
08
06
07
15
18
19
17
09
#990000
b1100011 "
0!
1J
0-
#995000
1!
1-
1\
0V
0,
12
0#
0.
04
03
16
05
08
07
19
